simulation/qsim/VGAOSST.msim.vcd
$comment
	File created using the following command:
		vcd file VGAOSST.msim.vcd -direction
$end
$date
	Sat Aug 28 22:32:06 2021
$end
$version
	ModelSim Version 2020.1
$end
$timescale
	1ps
$end

$scope module BCDCounter_vlg_vec_tst $end
$var reg 1 ! Clock $end
$var reg 1 " Reset $end
$var wire 1 # D0 $end
$var wire 1 $ D1 $end
$var wire 1 % D2 $end
$var wire 1 & D3 $end

$scope module i1 $end
$var wire 1 ' gnd $end
$var wire 1 ( vcc $end
$var wire 1 ) unknown $end
$var tri1 1 * devclrn $end
$var tri1 1 + devpor $end
$var tri1 1 , devoe $end
$var wire 1 - D0~output_o $end
$var wire 1 . D1~output_o $end
$var wire 1 / D2~output_o $end
$var wire 1 0 D3~output_o $end
$var wire 1 1 Clock~input_o $end
$var wire 1 2 Clock~inputclkctrl_outclk $end
$var wire 1 3 inst4~0_combout $end
$var wire 1 4 Reset~input_o $end
$var wire 1 5 Reset~inputclkctrl_outclk $end
$var wire 1 6 inst4~q $end
$var wire 1 7 inst3~0_combout $end
$var wire 1 8 inst3~q $end
$var wire 1 9 inst11~combout $end
$var wire 1 : inst1~q $end
$var wire 1 ; inst19~combout $end
$var wire 1 < inst2~q $end
$upscope $end
$upscope $end
$enddefinitions $end
#0
$dumpvars
0!
0"
0#
0$
0%
0&
0'
1(
x)
1*
1+
1,
0-
0.
0/
00
01
02
13
04
05
06
07
08
09
0:
0;
0<
$end
#10000
1!
11
12
16
1-
1#
1;
03
#20000
0!
01
02
#30000
1!
11
12
1<
06
0-
1.
1$
0#
13
#40000
0!
01
02
#50000
1!
11
12
16
1-
1#
0;
17
03
#60000
0!
01
02
#70000
1!
11
12
0<
18
06
0-
1/
0.
0$
1%
0#
13
#80000
0!
01
02
#90000
1!
11
12
16
1-
1#
1;
03
#100000
0!
01
02
#110000
1!
11
12
1<
06
0-
1.
1$
0#
13
#120000
0!
01
02
#130000
1!
11
12
16
1-
1#
0;
19
07
03
#140000
0!
01
02
#150000
1!
11
12
0<
1:
08
06
0-
0/
10
0.
0$
1&
0%
0#
13
#160000
0!
01
02
#170000
1!
11
12
16
1-
1#
09
03
#180000
0!
01
02
#190000
1!
11
12
0:
06
0-
00
0&
0#
13
#200000
0!
01
02
#210000
1!
11
12
16
1-
1#
1;
03
#220000
0!
01
02
#230000
1!
11
12
1<
06
0-
1.
1$
0#
13
#240000
0!
01
02
#250000
1!
11
12
16
1-
1#
0;
17
03
#260000
0!
01
02
#270000
1!
11
12
0<
18
06
0-
1/
0.
0$
1%
0#
13
#280000
0!
01
02
#290000
1!
11
12
16
1-
1#
1;
03
#300000
0!
01
02
#310000
1!
11
12
1<
06
0-
1.
1$
0#
13
#320000
0!
01
02
#330000
1!
11
12
16
1-
1#
0;
19
07
03
#340000
0!
01
02
#350000
1!
11
12
0<
1:
08
06
0-
0/
10
0.
0$
1&
0%
0#
13
#360000
0!
01
02
#370000
1!
11
12
16
1-
1#
09
03
#380000
0!
01
02
#390000
1!
11
12
0:
06
0-
00
0&
0#
13
#400000
1"
0!
14
01
15
02
#410000
1!
11
12
#420000
0!
01
02
#430000
1!
11
12
#440000
0!
01
02
#450000
1!
11
12
#460000
0!
01
02
#470000
1!
11
12
#480000
0!
01
02
#490000
1!
11
12
#500000
0"
0!
04
01
05
02
#510000
1!
11
12
16
1-
1#
1;
03
#520000
0!
01
02
#530000
1!
11
12
1<
06
0-
1.
1$
0#
13
#540000
0!
01
02
#550000
1!
11
12
16
1-
1#
0;
17
03
#560000
0!
01
02
#570000
1!
11
12
0<
18
06
0-
1/
0.
0$
1%
0#
13
#580000
0!
01
02
#590000
1!
11
12
16
1-
1#
1;
03
#600000
0!
01
02
#610000
1!
11
12
1<
06
0-
1.
1$
0#
13
#620000
0!
01
02
#630000
1!
11
12
16
1-
1#
0;
19
07
03
#640000
0!
01
02
#650000
1!
11
12
0<
1:
08
06
0-
0/
10
0.
0$
1&
0%
0#
13
#660000
0!
01
02
#670000
1!
11
12
16
1-
1#
09
03
#680000
0!
01
02
#690000
1!
11
12
0:
06
0-
00
0&
0#
13
#700000
0!
01
02
#710000
1!
11
12
16
1-
1#
1;
03
#720000
0!
01
02
#730000
1!
11
12
1<
06
0-
1.
1$
0#
13
#740000
0!
01
02
#750000
1!
11
12
16
1-
1#
0;
17
03
#760000
0!
01
02
#770000
1!
11
12
0<
18
06
0-
1/
0.
0$
1%
0#
13
#780000
0!
01
02
#790000
1!
11
12
16
1-
1#
1;
03
#800000
0!
01
02
#810000
1!
11
12
1<
06
0-
1.
1$
0#
13
#820000
0!
01
02
#830000
1!
11
12
16
1-
1#
0;
19
07
03
#840000
0!
01
02
#850000
1!
11
12
0<
1:
08
06
0-
0/
10
0.
0$
1&
0%
0#
13
#860000
0!
01
02
#870000
1!
11
12
16
1-
1#
09
03
#880000
0!
01
02
#890000
1!
11
12
0:
06
0-
00
0&
0#
13
#900000
0!
01
02
#910000
1!
11
12
16
1-
1#
1;
03
#920000
0!
01
02
#930000
1!
11
12
1<
06
0-
1.
1$
0#
13
#940000
0!
01
02
#950000
1!
11
12
16
1-
1#
0;
17
03
#960000
0!
01
02
#970000
1!
11
12
0<
18
06
0-
1/
0.
0$
1%
0#
13
#980000
0!
01
02
#990000
1!
11
12
16
1-
1#
1;
03
